{
    "id": "/subscriptions/{subscriptionId}/resourcegroups/myResourceGroup/providers/Microsoft.Resources/deployments/exampleDeploymentName",
    "name": "exampleDeploymentName",
    "type": "Microsoft.Resources/deployments",
    "properties": {
        "templateLink": {
            "uri": "{templateUri}",
            "contentVersion": "1.0.0.0"
        },
        "parameters": {},
        "mode": "Complete",
        "provisioningState": "Accepted",
        "timestamp": "2019-03-01T00:00:00.0000000Z",
        "duration": "PT0.8204881S",
        "correlationId": "{correlationId}",
        "providers": [
            {
                "namespace": "Microsoft.Network",
                "resourceTypes": [
                    {
                        "resourceType": "virtualNetworks",
                        "locations": [
                            "centralus"
                        ]
                    },
                    {
                        "resourceType": "virtualNetworks/subnets",
                        "locations": [
                            "centralus"
                        ]
                    }
                ]
            }
        ],
        "dependencies": [
            {
                "dependsOn": [
                    {
                        "id": "{resourceid}",
                        "resourceType": "Microsoft.Network/virtualNetworks",
                        "resourceName": "VNet1"
                    }
                ],
                "id": "{resourceid}",
                "resourceType": "Microsoft.Network/virtualNetworks/subnets",
                "resourceName": "VNet1/Subnet1"
            },
            {
                "dependsOn": [
                    {
                        "id": "{resourceid}",
                        "resourceType": "Microsoft.Network/virtualNetworks",
                        "resourceName": "VNet1"
                    },
                    {
                        "id": "{resourceid}",
                        "resourceType": "Microsoft.Network/virtualNetworks/subnets",
                        "resourceName": "VNet1/Subnet1"
                    }
                ],
                "id": "{resourceid}",
                "resourceType": "Microsoft.Network/virtualNetworks/subnets",
                "resourceName": "VNet1/Subnet2"
            }
        ],
        "onErrorDeployment": {
            "type": "LastSuccessful",
            "deploymentName": "{nameOfLastSuccesfulDeployment}"
        }
    }
}
